<svg xmlns="http://www.w3.org/2000/svg" width="136" height="22.826" viewBox="0 0 136 22.826">
  <g id="Google-Three-Star" transform="translate(-3 -3)">
    <path id="star" d="M12,.587l3.668,7.568L24,9.306l-6.064,5.828,1.48,8.279L12,19.446,4.583,23.413l1.481-8.279L0,9.306,8.332,8.155Z" transform="translate(3 2.413)" fill="#ffbd6b"/>
    <path id="star-2" data-name="star" d="M12,.587l3.668,7.568L24,9.306l-6.064,5.828,1.48,8.279L12,19.446,4.583,23.413l1.481-8.279L0,9.306,8.332,8.155Z" transform="translate(31 2.413)" fill="#ffbd6b"/>
    <path id="star-3" data-name="star" d="M12,.587l3.668,7.568L24,9.306l-6.064,5.828,1.48,8.279L12,19.446,4.583,23.413l1.481-8.279L0,9.306,8.332,8.155Z" transform="translate(59 2.413)" fill="#ffbd6b"/>
    <path id="star-4" data-name="star" d="M12,.587l3.668,7.568L24,9.306l-6.064,5.828,1.48,8.279L12,19.446,4.583,23.413l1.481-8.279L0,9.306,8.332,8.155Z" transform="translate(87 2.413)" fill="#fff"/>
    <path id="star-5" data-name="star" d="M12,.587l3.668,7.568L24,9.306l-6.064,5.828,1.48,8.279L12,19.446,4.583,23.413l1.481-8.279L0,9.306,8.332,8.155Z" transform="translate(115 2.413)" fill="#fff"/>
  </g>
</svg>
